…
``` r
# install.packages("remotes")
remotes::install_github("paleolimbot/oceandf")
```

## Example

Read ODF files as tables, guessing column types and names from the
PARAMTER\_HEADER:

``` r
library(oceandf)
odf_file <- odf_example("CTD_98911_10P_11_DN.ODF")
read_odf(odf_file)
#> # A tibble: 562 x 6
#>     PRES    TEMP  COND  PSAL    POTM  SIGP
#>    <dbl>   <dbl> <dbl> <dbl>   <dbl> <dbl>
#>  1 0.421  0.509   2.67  31.4  0.509   25.2
#>  2 0.8   -0.134   2.68  32.1 -0.134   25.8
#>  3 0.989 -0.229   2.68  32.2 -0.229   25.9
#>  4 1.08  -0.0914  2.68  32.1 -0.0914  25.8
#>  5 1.18   0.317   2.67  31.6  0.317   25.4
#>  6 1.37   0.222   2.67  31.7  0.222   25.4
#>  7 1.37   0.174   2.67  31.8  0.174   25.5
#>  8 1.37  -0.211   2.67  32.1 -0.211   25.8
#>  9 1.46  -0.193   2.66  32.0 -0.193   25.7
#> 10 1.56  -0.622   2.66  32.4 -0.622   26.0
#> # ... with 552 more rows
```
…
