Read 'ODF' files — read_odf • oceandf
…
      header_lines
      A previously read value obtained from
read_odf_header_lines().

      n_header
      The starting guess for number of header lines.

    Examples

odf_file <- odf_example("CTD_98911_10P_11_DN.ODF")
read_odf(odf_file)

#> # A tibble: 562 x 6
#>    PRES      TEMP  COND  PSAL    POTM  SIGP
#>    <chr>    <dbl> <dbl> <dbl>   <dbl> <dbl>
#>  1 0.4210  0.509   2.67  31.4  0.509   25.2
#>  2 0.8000 -0.134   2.68  32.1 -0.134   25.8
#>  3 0.9890 -0.229   2.68  32.2 -0.229   25.9
#>  4 1.0840 -0.0914  2.68  32.1 -0.0914  25.8
#>  5 1.1790  0.317   2.67  31.6  0.317   25.4
#>  6 1.3680  0.222   2.67  31.7  0.222   25.4
#>  7 1.3680  0.174   2.67  31.8  0.174   25.5
#>  8 1.3680 -0.211   2.67  32.1 -0.211   25.8
#>  9 1.4630 -0.193   2.66  32.0 -0.193   25.7
#> 10 1.5580 -0.622   2.66  32.4 -0.622   26.0
#> # … with 552 more rows
…
